vignette
…
Introduction

Four Sentiment Lexicon Libraries

Sentiment Lexicons are used to label a single word with a positive, negative, or neutral connotation. The way that the four datasets approach this classification is different.

AFINN

Assigns one single word with a numeric value between -5 and 5. Values in the negative range are words with a negative connotation. Those in the positive range are words with a positive connotation. The numeric values also have a degree, for example, positive ranges from 1 to 5, 5 being most positive and 1 being least positive.

library(textdata)
library(tidytext)
get_sentiments("afinn")

# A tibble: 2,477 × 2
   word       value
   <chr>      <dbl>
 1 abandon       -2
 2 abandoned     -2
 3 abandons      -2
 4 abducted      -2
 5 abduction     -2
 6 abductions    -2
 7 abhor         -3
 8 abhorred      -3
 9 abhorrent     -3
10 abhors        -3
# … with 2,467 more rows

Bing

Assigns “positive” or “negative”. The most simple of the sentiment lexicon libraries.

get_sentiments("bing")

# A tibble: 6,786 × 2
   word        sentiment
   <chr>       <chr>    
 1 2-faces     negative 
 2 abnormal    negative 
 3 abolish     negative 
 4 abominable  negative 
 5 abominably  negative 
 6 abominate   negative 
 7 abomination negative 
 8 abort       negative 
 9 aborted     negative 
10 aborts      negative 
# … with 6,776 more rows

NRC

Similar to bing in that it assigns one single word into a category but instead of just sentiments “negative” and “positive”, there is also an emotions related category that has “anger”, “anticipation”, “disgust”, “fear”, “joy”, “sadness”, “surprise”, and “trust”.

get_sentiments("nrc")

# A tibble: 13,872 × 2
   word        sentiment
   <chr>       <chr>    
 1 abacus      trust    
 2 abandon     fear     
 3 abandon     negative 
 4 abandon     sadness  
 5 abandoned   anger    
 6 abandoned   fear     
 7 abandoned   negative 
 8 abandoned   sadness  
 9 abandonment anger    
10 abandonment fear     
# … with 13,862 more rows
…
